com/kainos/foundations/subscribers/config/SubscribersConfiguration.class
com/kainos/foundations/subscribers/SubscribersApplication$1.class
com/kainos/foundations/subscribers/views/Index.class
com/kainos/foundations/subscribers/controllers/SubscribersController.class
com/kainos/foundations/subscribers/SubscribersApplication.class
