com/kainos/foundations/subscribers/model/User.class
com/kainos/foundations/subscribers/model/Subscriber.class
com/kainos/foundations/subscribers/views/Index.class
com/kainos/foundations/subscribers/data/UserMapper.class
com/kainos/foundations/subscribers/SubscribersApplication.class
com/kainos/foundations/subscribers/config/SubscribersConfiguration.class
com/kainos/foundations/subscribers/SubscribersApplication$1.class
com/kainos/foundations/subscribers/config/DatabaseConfig.class
com/kainos/foundations/subscribers/controllers/SubscribersController.class
com/kainos/foundations/subscribers/data/SubscriberDB.class
com/kainos/foundations/subscribers/data/SubscriberMapper.class
