/home/simontest1/work/subscribers-application/src/main/java/com/kainos/foundations/subscribers/controllers/SubscribersController.java
/home/simontest1/work/subscribers-application/src/main/java/com/kainos/foundations/subscribers/SubscribersApplication.java
/home/simontest1/work/subscribers-application/src/main/java/com/kainos/foundations/subscribers/views/Index.java
/home/simontest1/work/subscribers-application/src/main/java/com/kainos/foundations/subscribers/model/Subscriber.java
/home/simontest1/work/subscribers-application/src/main/java/com/kainos/foundations/subscribers/config/SubscribersConfiguration.java
